{
  "images" : [
    {
      "idiom" : "tv",
      "filename" : "1500_AppIcon_400x240_Back.jpg",
      "scale" : "1x"
    },
    {
      "idiom" : "tv",
      "filename" : "800x4Back.jpg",
      "scale" : "2x"
    }
  ],
  "info" : {
    "version" : 1,
    "author" : "xcode"
  }
}